# Do not edit -- this file documents how Postfix was built for your machine.
SYSTYPE	= SUNOS5
AR	= ar
ARFL	= rv
RANLIB	= echo
SYSLIBS	= -R/usr/local/BerkeleyDB/lib -L/usr/local/BerkeleyDB/lib -R/usr/local/ssl/lib -L/usr/local/ssl/lib -ldb -lssl -lcrypto -L/usr/local/lib -R/usr/local/lib -lpcre -lresolv -lsocket -lnsl
CC	= /opt/SUNWspro/bin/cc -m64 -O3 -DUSE_TLS -DHAS_SSL -DHAS_DB -I/usr/local/BerkeleyDB/include -I/usr/local/ssl/include -DUSE_SASL_AUTH -DDEF_SERVER_SASL_TYPE=\"dovecot\" -Dstrcasecmp=fix_strcasecmp 		  -Dstrncasecmp=fix_strncasecmp -DHAS_PCRE -I/usr/local/include
OPT	= -O
DEBUG	= -g
AWK	= /usr/xpg4/bin/awk
STRCASE = strcasecmp.o
EXPORT	= AUXLIBS='-R/usr/local/BerkeleyDB/lib -L/usr/local/BerkeleyDB/lib -R/usr/local/ssl/lib -L/usr/local/ssl/lib -ldb -lssl -lcrypto -L/usr/local/lib -R/usr/local/lib -lpcre' CCARGS='-m64 -O3 -DUSE_TLS -DHAS_SSL -DHAS_DB -I/usr/local/BerkeleyDB/include -I/usr/local/ssl/include -DUSE_SASL_AUTH -DDEF_SERVER_SASL_TYPE=\"dovecot\" -Dstrcasecmp=fix_strcasecmp 		  -Dstrncasecmp=fix_strncasecmp -DHAS_PCRE -I/usr/local/include' OPT='-O' DEBUG='-g'
WARN	= -Wall -Wno-comment -Wformat -Wimplicit -Wmissing-prototypes \
	-Wparentheses -Wstrict-prototypes -Wswitch -Wuninitialized \
	-Wunused -Wno-missing-braces
